# Energy [eV] =    9.27293E+00
# <x> [A] =    9.39873E-02
# <y> [A] =   -1.31203E-01
# <z> [A] =   -3.02829E-01
           1           5           1  -4.9627120795392112E-011
           2           5           1 -0.10060193954656528
           3           5           1  0.84016806041904479
           4           5           1 -0.52996241131409205
           1           6           1  -4.5672052380012191E-004
