FromScratch=yes
CalculationMode = gs
PeriodicDimensions = 3
ExperimentalFeatures = yes
BoxShape = parallelepiped
%LatticeParameters
 8.0000000000E+00 | 8.0000000000E+00 | 9.0000000000E+00
%
%LatticeVectors
 1.0000000000E+00 | 0.0000000000E+00 | 0.0000000000E+00
 -5.0000000000E-01 | 8.6602540378E-01 | 0.0000000000E+00
 6.1232339957E-17 | 1.0605752387E-16 | 1.0000000000E+00
%
Spacing = 0.8
TheoryLevel = independent_particles
MaximumIter = 0
LCAOStart = lcao_none
FilterPotentials = filter_none
%KpointsGrid
 4 | 4 | 4
%
KPointsUseSymmetries = yes
%ReducedCoordinates
"H" | 1.7000000000E-01 | 1.5000000000E-01 | 1.1000000000E-01
"H" | 2.0000000000E-02 | 1.7000000000E-01 | 6.1000000000E-01
"H" | 8.5000000000E-01 | 2.0000000000E-02 | 1.1000000000E-01
"H" | 8.3000000000E-01 | 8.5000000000E-01 | 6.1000000000E-01
"H" | 9.8000000000E-01 | 8.3000000000E-01 | 1.1000000000E-01
"H" | 1.5000000000E-01 | 9.8000000000E-01 | 6.1000000000E-01
%
